{
  "pagination": [
    {
      "per_page": 15,
      "total_entries": 40,
      "total_pages": 17,
      "page": 1
    }
  ],
  "Success": [
    {
      "key": 1,
      "id": "16301",
      "lastName": "Krishna",
      "designation": "Software Engineer",
      "dateOfBirth": "1991 Feb 10 00:00",
      "dateOfJoining": "",
      "dateOfRelieving": "2017 Nov 22 17:10",
      "maritalStatus": "",
      "location": "",
      "panCardNo": "APNJRK3737R",
      "passPortNo": null,
      "passPortExpiryDate": null,
      "passPortIssueDate": null,
      "aadharCardNo": "324455656789",
      "bloodGroup": "",
      "emailId": "hvanapamula@nisum.com",
      "createdBy": 1,
      "createdDate": "2017 Nov 22 17:10",
      "updatedBy": 1,
      "updatedDate": "2017 Nov 22 17:10",
      "comments": null,
      "photo": null,
      "role": null,
      "functionalGroup": null,
      "active": false,
      "billable": false,
      "firstName": "Rajeshkumar",
      "gender": "",
      "empId": "16301",
      "dob": "",
      "dateOfReleiving": "",
      "email": "hvanapamula@nisum.com",
      "panCard": "APNJRK3737R",
      "aadharCard": "324455656789",
      "passportNo": "",
      "passportIssueDate": "",
      "passportExpDate": ""
    },
    {
      "key": 2,
      "id": "16302",
      "firstName": "Rajendra",
      "lastName": "Prasad",
      "gender": "",
      "designation": "software engineer",
      "dateOfBirth": "1993 Feb 10 00:00",
      "dateOfJoining": "",
      "dateOfRelieving": "2017 Nov 22 17:10",
      "maritalStatus": "",
      "location": "",
      "panCardNo": "APNJRK7837R",
      "passPortNo": null,
      "passPortExpiryDate": null,
      "passPortIssueDate": null,
      "aadharCardNo": "324455656789",
      "bloodGroup": "",
      "emailId": "rdava@nisum.com",
      "createdBy": 1,
      "createdDate": "2017 Nov 22 17:10",
      "updatedBy": 1,
      "updatedDate": "2017 Nov 22 17:10",
      "comments": null,
      "photo": null,
      "role": null,
      "functionalGroup": null,
      "active": false,
      "billable": false,
      "empId": "16302",
      "dob": "",
      "dateOfReleiving": "",
      "email": "rdava@nisum.com",
      "panCard": "APNJRK7837R",
      "aadharCard": "324455656789",
      "passportNo": "",
      "passportIssueDate": "",
      "passportExpDate": ""
    },
    {
      "key": 3,
      "id": "16303",
      "firstName": "Rakesh",
      "lastName": "Rayapol",
      "gender": "",
      "designation": "software engineer",
      "dateOfBirth": "1988 Oct 10 00:00",
      "dateOfJoining": "",
      "dateOfRelieving": "2017 Nov 22 17:10",
      "maritalStatus": "",
      "location": "",
      "panCardNo": "APNERRK3737R",
      "passPortNo": null,
      "passPortExpiryDate": null,
      "passPortIssueDate": null,
      "aadharCardNo": "324986560789",
      "bloodGroup": "",
      "emailId": "rrayapol@nisum.com",
      "createdBy": 1,
      "createdDate": "2017 Nov 22 17:10",
      "updatedBy": 1,
      "updatedDate": "2017 Nov 22 17:10",
      "comments": null,
      "photo": null,
      "role": null,
      "functionalGroup": null,
      "active": true,
      "billable": false,
      "empId": "16303",
      "dob": "",
      "dateOfReleiving": "",
      "email": "rrayapol@nisum.com",
      "panCard": "APNERRK3737R",
      "aadharCard": "324986560789",
      "passportNo": "",
      "passportIssueDate": "",
      "passportExpDate": ""
    },
    {
      "key": 4,
      "id": "16304",
      "firstName": "Ramesh",
      "lastName": "e",
      "gender": "",
      "designation": "Software Engineer",
      "dateOfBirth": "1988 Oct 10 00:00",
      "dateOfJoining": "",
      "dateOfRelieving": "2017 Nov 22 17:10",
      "maritalStatus": "",
      "location": "",
      "panCardNo": "APNERRK3737R",
      "passPortNo": null,
      "passPortExpiryDate": null,
      "passPortIssueDate": null,
      "aadharCardNo": "324986560789",
      "bloodGroup": "",
      "emailId": "rrayapol@nisum.com",
      "createdBy": 1,
      "createdDate": "2017 Nov 22 17:10",
      "updatedBy": 1,
      "updatedDate": "2017 Nov 22 17:10",
      "comments": null,
      "photo": null,
      "role": null,
      "functionalGroup": null,
      "active": true,
      "billable": false,
      "empId": "16304",
      "dob": "",
      "dateOfReleiving": "",
      "email": "rrayapol@nisum.com",
      "panCard": "APNERRK3737R",
      "aadharCard": "324986560789",
      "passportNo": "",
      "passportIssueDate": "",
      "passportExpDate": ""
    },
    {
      "key": 5,
      "id": "16305",
      "firstName": "test user1",
      "lastName": "x",
      "gender": "",
      "designation": "QA",
      "dateOfBirth": "1988 Oct 10 00:00",
      "dateOfJoining": "",
      "dateOfRelieving": "2017 Nov 22 17:10",
      "maritalStatus": "",
      "location": "",
      "panCardNo": "APNERRK3737R",
      "passPortNo": null,
      "passPortExpiryDate": null,
      "passPortIssueDate": null,
      "aadharCardNo": "324986560789",
      "bloodGroup": "",
      "emailId": "rrayapol@nisum.com",
      "createdBy": 1,
      "createdDate": "2017 Nov 22 17:10",
      "updatedBy": 1,
      "updatedDate": "2017 Nov 22 17:10",
      "comments": null,
      "photo": null,
      "role": null,
      "functionalGroup": null,
      "active": true,
      "billable": false,
      "empId": "16305",
      "dob": "",
      "dateOfReleiving": "",
      "email": "rrayapol@nisum.com",
      "panCard": "APNERRK3737R",
      "aadharCard": "324986560789",
      "passportNo": "",
      "passportIssueDate": "",
      "passportExpDate": ""
    },
    {
      "key": 6,
      "id": "16306",
      "firstName": "test user2",
      "lastName": "Rayapol",
      "gender": "",
      "designation": "Associate",
      "dateOfBirth": "1988 Oct 10 00:00",
      "dateOfJoining": "",
      "dateOfRelieving": "2017 Nov 22 17:10",
      "maritalStatus": "",
      "location": "",
      "panCardNo": "APNERRK3737R",
      "passPortNo": null,
      "passPortExpiryDate": null,
      "passPortIssueDate": null,
      "aadharCardNo": "324986560789",
      "bloodGroup": "",
      "emailId": "rrayapol@nisum.com",
      "createdBy": 1,
      "createdDate": "2017 Nov 22 17:10",
      "updatedBy": 1,
      "updatedDate": "2017 Nov 22 17:10",
      "comments": null,
      "photo": null,
      "role": null,
      "functionalGroup": null,
      "active": true,
      "billable": false,
      "empId": "16307",
      "dob": "",
      "dateOfReleiving": "",
      "email": "rrayapol@nisum.com",
      "panCard": "APNERRK3737R",
      "aadharCard": "324986560789",
      "passportNo": "",
      "passportIssueDate": "",
      "passportExpDate": ""
    }
  ]
}